INDEX VERSION 1.130+C:\1.TS\FSD\fsd60\4.SpringBoot\Workspace1\.metadata\.plugins\org.eclipse.jdt.core
33777414.index
1828026965.index
542153213.index
2885606711.index
3336324604.index
1470693374.index
3968484621.index
2066830214.index
37914509.index
2078445976.index
3956018422.index
1304648422.index
1391454384.index
613678618.index
2532301611.index
3671759958.index
3194128322.index
3169423356.index
486762975.index
1956904976.index
3348520720.index
327529377.index
1691015237.index
1047131882.index
4204392455.index
103378668.index
4259073463.index
2559127783.index
4138326577.index
4016025545.index
1961815414.index
1021507813.index
2136452367.index
1154202672.index
4149601827.index
549605998.index
723044824.index
2762925473.index
1946725198.index
3040837599.index
2876534162.index
2808626380.index
1486713288.index
2435812712.index
2770894395.index
2048026718.index
1618318455.index
3940956475.index
539532993.index
933299584.index
1258648050.index
3644761064.index
1729490570.index
2507423472.index
674573568.index
3178186096.index
2205283528.index
2521876645.index
3067235494.index
3795243656.index
1372437983.index
4103599956.index
411227453.index
2547109510.index
1656695668.index
1223898119.index
939153128.index
895354549.index
2677756777.index
2419782067.index
2232781244.index
1784973487.index
4135958314.index
1080315689.index
4150198337.index
3784565907.index
2915503811.index
633817503.index
1962557628.index
